test.vcd
$date
	Wed Jan 23 16:19:23 2019
$end
$version
	Icarus Verilog
$end
$timescale
	1s
$end
$scope module test $end
$var reg 1 ! clk $end
$var reg 4 " counter [3:0] $end
$scope module seg10_inst $end
$var wire 4 # count [3:0] $end
$var reg 10 $ segs [9:0] $end
$upscope $end
$upscope $end
$enddefinitions $end
#0
$dumpvars
b1111111100 $
b0 #
b0 "
0!
$end
#1
b11000000 $
b1 "
b1 #
1!
#2
0!
#3
b1110111011 $
b10 "
b10 #
1!
#4
0!
#5
b1111110011 $
b11 "
b11 #
1!
#6
0!
#7
b11000111 $
b100 "
b100 #
1!
#8
0!
#9
b1101110111 $
b101 "
b101 #
1!
#10
0!
#11
b1111111 $
b110 "
b110 #
1!
#12
0!
#13
b1111000000 $
b111 "
b111 #
1!
#14
0!
#15
b1111111111 $
b1000 "
b1000 #
1!
#16
0!
#17
b1111000111 $
b1001 "
b1001 #
1!
#18
0!
#19
b1111001111 $
b1010 "
b1010 #
1!
#20
0!
#21
b1111111 $
b1011 "
b1011 #
1!
#22
0!
#23
b111011 $
b1100 "
b1100 #
1!
#24
0!
#25
b11111011 $
b1101 "
b1101 #
1!
#26
0!
#27
b1100111111 $
b1110 "
b1110 #
1!
#28
0!
#29
b1100001111 $
b1111 "
b1111 #
1!
#30
0!
#31
b1111111100 $
b0 "
b0 #
1!
#32
0!
#33
b11000000 $
b1 "
b1 #
1!
#34
0!
#35
b1110111011 $
b10 "
b10 #
1!
#36
0!
#37
b1111110011 $
b11 "
b11 #
1!
#38
0!
#39
b11000111 $
b100 "
b100 #
1!
#40
0!
#41
b1101110111 $
b101 "
b101 #
1!
#42
0!
#43
b1111111 $
b110 "
b110 #
1!
#44
0!
#45
b1111000000 $
b111 "
b111 #
1!
#46
0!
#47
b1111111111 $
b1000 "
b1000 #
1!
#48
0!
#49
b1111000111 $
b1001 "
b1001 #
1!
#50
0!
#51
b1111001111 $
b1010 "
b1010 #
1!
#52
0!
#53
b1111111 $
b1011 "
b1011 #
1!
#54
0!
#55
b111011 $
b1100 "
b1100 #
1!
#56
0!
#57
b11111011 $
b1101 "
b1101 #
1!
#58
0!
#59
b1100111111 $
b1110 "
b1110 #
1!
#60
0!
#61
b1100001111 $
b1111 "
b1111 #
1!
#62
0!
#63
b1111111100 $
b0 "
b0 #
1!
#64
0!
#65
b11000000 $
b1 "
b1 #
1!
#66
0!
#67
b1110111011 $
b10 "
b10 #
1!
#68
0!
#69
b1111110011 $
b11 "
b11 #
1!
#70
0!
#71
b11000111 $
b100 "
b100 #
1!
#72
0!
#73
b1101110111 $
b101 "
b101 #
1!
#74
0!
#75
b1111111 $
b110 "
b110 #
1!
#76
0!
#77
b1111000000 $
b111 "
b111 #
1!
#78
0!
#79
b1111111111 $
b1000 "
b1000 #
1!
#80
0!
#81
b1111000111 $
b1001 "
b1001 #
1!
#82
0!
#83
b1111001111 $
b1010 "
b1010 #
1!
#84
0!
#85
b1111111 $
b1011 "
b1011 #
1!
#86
0!
#87
b111011 $
b1100 "
b1100 #
1!
#88
0!
#89
b11111011 $
b1101 "
b1101 #
1!
#90
0!
#91
b1100111111 $
b1110 "
b1110 #
1!
#92
0!
#93
b1100001111 $
b1111 "
b1111 #
1!
#94
0!
#95
b1111111100 $
b0 "
b0 #
1!
#96
0!
#97
b11000000 $
b1 "
b1 #
1!
#98
0!
#99
b1110111011 $
b10 "
b10 #
1!
