examples/project-euler1/euler1.vcd
$comment Generated by Amaranth $end
$date 2022-08-03 04:11:37.989923 $end
$timescale 1 ps $end
$scope module bench $end
$scope module top $end
$var wire 1 ! clk $end
$var wire 1 " rst $end
$var wire 1 # c3_lt_1000 $end
$var wire 17 $ c3 $end
$var wire 1 % c5_lt_1000 $end
$var wire 18 & c5 $end
$var wire 1 ' v5 $end
$var wire 5 ( shift5 $end
$var wire 19 ) result $end
$upscope $end
$upscope $end
$enddefinitions $end
#0
$dumpvars
0!
0"
1#
b0 $
1%
b0 &
0'
b1 (
b0 )
$end
#2
b10 (
1'
b11 $
1!
b101 &
#4
0!
#6
b1000 )
b100 (
b110 $
1!
b1010 &
#8
0!
#10
b11000 )
b1000 (
0'
b1001 $
1!
b1111 &
#12
0!
#14
b100001 )
b1100 $
b10000 (
1!
#16
0!
#18
b101101 )
b1111 $
b1 (
1!
#20
0!
#22
b111100 )
b10 (
1'
b10010 $
1!
b10100 &
#24
0!
#26
b1100010 )
b100 (
b10101 $
1!
b11001 &
#28
0!
#30
b10010000 )
b1000 (
0'
b11000 $
1!
b11110 &
#32
0!
#34
b10101000 )
b11011 $
b10000 (
1!
#36
0!
#38
b11000011 )
b11110 $
b1 (
1!
#40
0!
#42
b11100001 )
b10 (
1'
b100001 $
1!
b100011 &
#44
0!
#46
b100100101 )
b100 (
b100100 $
1!
b101000 &
#48
0!
#50
b101110001 )
b1000 (
0'
b100111 $
1!
b101101 &
#52
0!
#54
b110011000 )
b101010 $
b10000 (
1!
#56
0!
#58
b111000010 )
b101101 $
b1 (
1!
#60
0!
#62
b111101111 )
b10 (
1'
b110000 $
1!
b110010 &
#64
0!
#66
b1001010001 )
b100 (
b110011 $
1!
b110111 &
#68
0!
#70
b1010111011 )
b1000 (
0'
b110110 $
1!
b111100 &
#72
0!
#74
b1011110001 )
b111001 $
b10000 (
1!
#76
0!
#78
b1100101010 )
b111100 $
b1 (
1!
#80
0!
#82
b1101100110 )
b10 (
1'
b111111 $
1!
b1000001 &
#84
0!
#86
b1111100110 )
b100 (
b1000010 $
1!
b1000110 &
#88
0!
#90
b10001101110 )
b1000 (
0'
b1000101 $
1!
b1001011 &
#92
0!
#94
b10010110011 )
b1001000 $
b10000 (
1!
#96
0!
#98
b10011111011 )
b1001011 $
b1 (
1!
#100
0!
#102
b10101000110 )
b10 (
1'
b1001110 $
1!
b1010000 &
#104
0!
#106
b10111100100 )
b100 (
b1010001 $
1!
b1010101 &
#108
0!
#110
b11010001010 )
b1000 (
0'
b1010100 $
1!
b1011010 &
#112
0!
#114
b11011011110 )
b1010111 $
b10000 (
1!
#116
0!
#118
b11100110101 )
b1011010 $
b1 (
1!
#120
0!
#122
b11110001111 )
b10 (
1'
b1011101 $
1!
b1011111 &
#124
0!
#126
b100001001011 )
b100 (
b1100000 $
1!
b1100100 &
#128
0!
#130
b100100001111 )
b1000 (
0'
b1100011 $
1!
b1101001 &
#132
0!
#134
b100101110010 )
b1100110 $
b10000 (
1!
#136
0!
#138
b100111011000 )
b1101001 $
b1 (
1!
#140
0!
#142
b101001000001 )
b10 (
1'
b1101100 $
1!
b1101110 &
#144
0!
#146
b101100011011 )
b100 (
b1101111 $
1!
b1110011 &
#148
0!
#150
b101111111101 )
b1000 (
0'
b1110010 $
1!
b1111000 &
#152
0!
#154
b110001101111 )
b1110101 $
b10000 (
1!
#156
0!
#158
b110011100100 )
b1111000 $
b1 (
1!
#160
0!
#162
b110101011100 )
b10 (
1'
b1111011 $
1!
b1111101 &
#164
0!
#166
b111001010100 )
b100 (
b1111110 $
1!
b10000010 &
#168
0!
#170
b111101010100 )
b1000 (
0'
b10000001 $
1!
b10000111 &
#172
0!
#174
b111111010101 )
b10000100 $
b10000 (
1!
#176
0!
#178
b1000001011001 )
b10000111 $
b1 (
1!
#180
0!
#182
b1000011100000 )
b10 (
1'
b10001010 $
1!
b10001100 &
#184
0!
#186
b1000111110110 )
b100 (
b10001101 $
1!
b10010001 &
#188
0!
#190
b1001100010100 )
b1000 (
0'
b10010000 $
1!
b10010110 &
#192
0!
#194
b1001110100100 )
b10010011 $
b10000 (
1!
#196
0!
#198
b1010000110111 )
b10010110 $
b1 (
1!
#200
0!
#202
b1010011001101 )
b10 (
1'
b10011001 $
1!
b10011011 &
#204
0!
#206
b1011000000001 )
b100 (
b10011100 $
1!
b10100000 &
#208
0!
#210
b1011100111101 )
b1000 (
0'
b10011111 $
1!
b10100101 &
#212
0!
#214
b1011111011100 )
b10100010 $
b10000 (
1!
#216
0!
#218
b1100001111110 )
b10100101 $
b1 (
1!
#220
0!
#222
b1100100100011 )
b10 (
1'
b10101000 $
1!
b10101010 &
#224
0!
#226
b1101001110101 )
b100 (
b10101011 $
1!
b10101111 &
#228
0!
#230
b1101111001111 )
b1000 (
0'
b10101110 $
1!
b10110100 &
#232
0!
#234
b1110001111101 )
b10110001 $
b10000 (
1!
#236
0!
#238
b1110100101110 )
b10110100 $
b1 (
1!
#240
0!
#242
b1110111100010 )
b10 (
1'
b10110111 $
1!
b10111001 &
#244
0!
#246
b1111101010010 )
b100 (
b10111010 $
1!
b10111110 &
#248
0!
#250
b10000011001010 )
b1000 (
0'
b10111101 $
1!
b11000011 &
#252
0!
#254
b10000110000111 )
b11000000 $
b10000 (
1!
#256
0!
#258
b10001001000111 )
b11000011 $
b1 (
1!
#260
0!
#262
b10001100001010 )
b10 (
1'
b11000110 $
1!
b11001000 &
#264
0!
#266
b10010010011000 )
b100 (
b11001001 $
1!
b11001101 &
#268
0!
#270
b10011000101110 )
b1000 (
0'
b11001100 $
1!
b11010010 &
#272
0!
#274
b10011011111010 )
b11001111 $
b10000 (
1!
#276
0!
#278
b10011111001001 )
b11010010 $
b1 (
1!
#280
0!
#282
b10100010011011 )
b10 (
1'
b11010101 $
1!
b11010111 &
#284
0!
#286
b10101001000111 )
b100 (
b11011000 $
1!
b11011100 &
#288
0!
#290
b10101111111011 )
b1000 (
0'
b11011011 $
1!
b11100001 &
#292
0!
#294
b10110011010110 )
b11011110 $
b10000 (
1!
#296
0!
#298
b10110110110100 )
b11100001 $
b1 (
1!
#300
0!
#302
b10111010010101 )
b10 (
1'
b11100100 $
1!
b11100110 &
#304
0!
#306
b11000001011111 )
b100 (
b11100111 $
1!
b11101011 &
#308
0!
#310
b11001000110001 )
b1000 (
0'
b11101010 $
1!
b11110000 &
#312
0!
#314
b11001100011011 )
b11101101 $
b10000 (
1!
#316
0!
#318
b11010000001000 )
b11110000 $
b1 (
1!
#320
0!
#322
b11010011111000 )
b10 (
1'
b11110011 $
1!
b11110101 &
#324
0!
#326
b11011011100000 )
b100 (
b11110110 $
1!
b11111010 &
#328
0!
#330
b11100011010000 )
b1000 (
0'
b11111001 $
1!
b11111111 &
#332
0!
#334
b11100111001001 )
b11111100 $
b10000 (
1!
#336
0!
#338
b11101011000101 )
b11111111 $
b1 (
1!
#340
0!
#342
b11101111000100 )
b10 (
1'
b100000010 $
1!
b100000100 &
#344
0!
#346
b11110111001010 )
b100 (
b100000101 $
1!
b100001001 &
#348
0!
#350
b11111111011000 )
b1000 (
0'
b100001000 $
1!
b100001110 &
#352
0!
#354
b100000011100000 )
b100001011 $
b10000 (
1!
#356
0!
#358
b100000111101011 )
b100001110 $
b1 (
1!
#360
0!
#362
b100001011111001 )
b10 (
1'
b100010001 $
1!
b100010011 &
#364
0!
#366
b100010100011101 )
b100 (
b100010100 $
1!
b100011000 &
#368
0!
#370
b100011101001001 )
b1000 (
0'
b100010111 $
1!
b100011101 &
#372
0!
#374
b100100001100000 )
b100011010 $
b10000 (
1!
#376
0!
#378
b100100101111010 )
b100011101 $
b1 (
1!
#380
0!
#382
b100101010010111 )
b10 (
1'
b100100000 $
1!
b100100010 &
#384
0!
#386
b100110011011001 )
b100 (
b100100011 $
1!
b100100111 &
#388
0!
#390
b100111100100011 )
b1000 (
0'
b100100110 $
1!
b100101100 &
#392
0!
#394
b101000001001001 )
b100101001 $
b10000 (
1!
#396
0!
#398
b101000101110010 )
b100101100 $
b1 (
1!
#400
0!
#402
b101001010011110 )
b10 (
1'
b100101111 $
1!
b100110001 &
#404
0!
#406
b101010011111110 )
b100 (
b100110010 $
1!
b100110110 &
#408
0!
#410
b101011101100110 )
b1000 (
0'
b100110101 $
1!
b100111011 &
#412
0!
#414
b101100010011011 )
b100111000 $
b10000 (
1!
#416
0!
#418
b101100111010011 )
b100111011 $
b1 (
1!
#420
0!
#422
b101101100001110 )
b10 (
1'
b100111110 $
1!
b101000000 &
#424
0!
#426
b101110110001100 )
b100 (
b101000001 $
1!
b101000101 &
#428
0!
#430
b110000000010010 )
b1000 (
0'
b101000100 $
1!
b101001010 &
#432
0!
#434
b110000101010110 )
b101000111 $
b10000 (
1!
#436
0!
#438
b110001010011101 )
b101001010 $
b1 (
1!
#440
0!
#442
b110001111100111 )
b10 (
1'
b101001101 $
1!
b101001111 &
#444
0!
#446
b110011010000011 )
b100 (
b101010000 $
1!
b101010100 &
#448
0!
#450
b110100100100111 )
b1000 (
0'
b101010011 $
1!
b101011001 &
#452
0!
#454
b110101001111010 )
b101010110 $
b10000 (
1!
#456
0!
#458
b110101111010000 )
b101011001 $
b1 (
1!
#460
0!
#462
b110110100101001 )
b10 (
1'
b101011100 $
1!
b101011110 &
#464
0!
#466
b110111111100011 )
b100 (
b101011111 $
1!
b101100011 &
#468
0!
#470
b111001010100101 )
b1000 (
0'
b101100010 $
1!
b101101000 &
#472
0!
#474
b111010000000111 )
b101100101 $
b10000 (
1!
#476
0!
#478
b111010101101100 )
b101101000 $
b1 (
1!
#480
0!
#482
b111011011010100 )
b10 (
1'
b101101011 $
1!
b101101101 &
#484
0!
#486
b111100110101100 )
b100 (
b101101110 $
1!
b101110010 &
#488
0!
#490
b111110010001100 )
b1000 (
0'
b101110001 $
1!
b101110111 &
#492
0!
#494
b111110111111101 )
b101110100 $
b10000 (
1!
#496
0!
#498
b111111101110001 )
b101110111 $
b1 (
1!
#500
0!
#502
b1000000011101000 )
b10 (
1'
b101111010 $
1!
b101111100 &
#504
0!
#506
b1000001111011110 )
b100 (
b101111101 $
1!
b110000001 &
#508
0!
#510
b1000011011011100 )
b1000 (
0'
b110000000 $
1!
b110000110 &
#512
0!
#514
b1000100001011100 )
b110000011 $
b10000 (
1!
#516
0!
#518
b1000100111011111 )
b110000110 $
b1 (
1!
#520
0!
#522
b1000101101100101 )
b10 (
1'
b110001001 $
1!
b110001011 &
#524
0!
#526
b1000111001111001 )
b100 (
b110001100 $
1!
b110010000 &
#528
0!
#530
b1001000110010101 )
b1000 (
0'
b110001111 $
1!
b110010101 &
#532
0!
#534
b1001001100100100 )
b110010010 $
b10000 (
1!
#536
0!
#538
b1001010010110110 )
b110010101 $
b1 (
1!
#540
0!
#542
b1001011001001011 )
b10 (
1'
b110011000 $
1!
b110011010 &
#544
0!
#546
b1001100101111101 )
b100 (
b110011011 $
1!
b110011111 &
#548
0!
#550
b1001110010110111 )
b1000 (
0'
b110011110 $
1!
b110100100 &
#552
0!
#554
b1001111001010101 )
b110100001 $
b10000 (
1!
#556
0!
#558
b1001111111110110 )
b110100100 $
b1 (
1!
#560
0!
#562
b1010000110011010 )
b10 (
1'
b110100111 $
1!
b110101001 &
#564
0!
#566
b1010010011101010 )
b100 (
b110101010 $
1!
b110101110 &
#568
0!
#570
b1010100001000010 )
b1000 (
0'
b110101101 $
1!
b110110011 &
#572
0!
#574
b1010100111101111 )
b110110000 $
b10000 (
1!
#576
0!
#578
b1010101110011111 )
b110110011 $
b1 (
1!
#580
0!
#582
b1010110101010010 )
b10 (
1'
b110110110 $
1!
b110111000 &
#584
0!
#586
b1011000011000000 )
b100 (
b110111001 $
1!
b110111101 &
#588
0!
#590
b1011010000110110 )
b1000 (
0'
b110111100 $
1!
b111000010 &
#592
0!
#594
b1011010111110010 )
b110111111 $
b10000 (
1!
#596
0!
#598
b1011011110110001 )
b111000010 $
b1 (
1!
#600
0!
#602
b1011100101110011 )
b10 (
1'
b111000101 $
1!
b111000111 &
#604
0!
#606
b1011110011111111 )
b100 (
b111001000 $
1!
b111001100 &
#608
0!
#610
b1100000010010011 )
b1000 (
0'
b111001011 $
1!
b111010001 &
#612
0!
#614
b1100001001011110 )
b111001110 $
b10000 (
1!
#616
0!
#618
b1100010000101100 )
b111010001 $
b1 (
1!
#620
0!
#622
b1100010111111101 )
b10 (
1'
b111010100 $
1!
b111010110 &
#624
0!
#626
b1100100110100111 )
b100 (
b111010111 $
1!
b111011011 &
#628
0!
#630
b1100110101011001 )
b1000 (
0'
b111011010 $
1!
b111100000 &
#632
0!
#634
b1100111100110011 )
b111011101 $
b10000 (
1!
#636
0!
#638
b1101000100010000 )
b111100000 $
b1 (
1!
#640
0!
#642
b1101001011110000 )
b10 (
1'
b111100011 $
1!
b111100101 &
#644
0!
#646
b1101011010111000 )
b100 (
b111100110 $
1!
b111101010 &
#648
0!
#650
b1101101010001000 )
b1000 (
0'
b111101001 $
1!
b111101111 &
#652
0!
#654
b1101110001110001 )
b111101100 $
b10000 (
1!
#656
0!
#658
b1101111001011101 )
b111101111 $
b1 (
1!
#660
0!
#662
b1110000001001100 )
b10 (
1'
b111110010 $
1!
b111110100 &
#664
0!
#666
b1110010000110010 )
b100 (
b111110101 $
1!
b111111001 &
#668
0!
#670
b1110100000100000 )
b1000 (
0'
b111111000 $
1!
b111111110 &
#672
0!
#674
b1110101000011000 )
b111111011 $
b10000 (
1!
#676
0!
#678
b1110110000010011 )
b111111110 $
b1 (
1!
#680
0!
#682
b1110111000010001 )
b10 (
1'
b1000000001 $
1!
b1000000011 &
#684
0!
#686
b1111001000010101 )
b100 (
b1000000100 $
1!
b1000001000 &
#688
0!
#690
b1111011000100001 )
b1000 (
0'
b1000000111 $
1!
b1000001101 &
#692
0!
#694
b1111100000101000 )
b1000001010 $
b10000 (
1!
#696
0!
#698
b1111101000110010 )
b1000001101 $
b1 (
1!
#700
0!
#702
b1111110000111111 )
b10 (
1'
b1000010000 $
1!
b1000010010 &
#704
0!
#706
b10000000001100001 )
b100 (
b1000010011 $
1!
b1000010111 &
#708
0!
#710
b10000010010001011 )
b1000 (
0'
b1000010110 $
1!
b1000011100 &
#712
0!
#714
b10000011010100001 )
b1000011001 $
b10000 (
1!
#716
0!
#718
b10000100010111010 )
b1000011100 $
b1 (
1!
#720
0!
#722
b10000101011010110 )
b10 (
1'
b1000011111 $
1!
b1000100001 &
#724
0!
#726
b10000111100010110 )
b100 (
b1000100010 $
1!
b1000100110 &
#728
0!
#730
b10001001101011110 )
b1000 (
0'
b1000100101 $
1!
b1000101011 &
#732
0!
#734
b10001010110000011 )
b1000101000 $
b10000 (
1!
#736
0!
#738
b10001011110101011 )
b1000101011 $
b1 (
1!
#740
0!
#742
b10001100111010110 )
b10 (
1'
b1000101110 $
1!
b1000110000 &
#744
0!
#746
b10001111000110100 )
b100 (
b1000110001 $
1!
b1000110101 &
#748
0!
#750
b10010001010011010 )
b1000 (
0'
b1000110100 $
1!
b1000111010 &
#752
0!
#754
b10010010011001110 )
b1000110111 $
b10000 (
1!
#756
0!
#758
b10010011100000101 )
b1000111010 $
b1 (
1!
#760
0!
#762
b10010100100111111 )
b10 (
1'
b1000111101 $
1!
b1000111111 &
#764
0!
#766
b10010110110111011 )
b100 (
b1001000000 $
1!
b1001000100 &
#768
0!
#770
b10011001000111111 )
b1000 (
0'
b1001000011 $
1!
b1001001001 &
#772
0!
#774
b10011010010000010 )
b1001000110 $
b10000 (
1!
#776
0!
#778
b10011011011001000 )
b1001001001 $
b1 (
1!
#780
0!
#782
b10011100100010001 )
b10 (
1'
b1001001100 $
1!
b1001001110 &
#784
0!
#786
b10011110110101011 )
b100 (
b1001001111 $
1!
b1001010011 &
#788
0!
#790
b10100001001001101 )
b1000 (
0'
b1001010010 $
1!
b1001011000 &
#792
0!
#794
b10100010010011111 )
b1001010101 $
b10000 (
1!
#796
0!
#798
b10100011011110100 )
b1001011000 $
b1 (
1!
#800
0!
#802
b10100100101001100 )
b10 (
1'
b1001011011 $
1!
b1001011101 &
#804
0!
#806
b10100111000000100 )
b100 (
b1001011110 $
1!
b1001100010 &
#808
0!
#810
b10101001011000100 )
b1000 (
0'
b1001100001 $
1!
b1001100111 &
#812
0!
#814
b10101010100100101 )
b1001100100 $
b10000 (
1!
#816
0!
#818
b10101011110001001 )
b1001100111 $
b1 (
1!
#820
0!
#822
b10101100111110000 )
b10 (
1'
b1001101010 $
1!
b1001101100 &
#824
0!
#826
b10101111011000110 )
b100 (
b1001101101 $
1!
b1001110001 &
#828
0!
#830
b10110001110100100 )
b1000 (
0'
b1001110000 $
1!
b1001110110 &
#832
0!
#834
b10110011000010100 )
b1001110011 $
b10000 (
1!
#836
0!
#838
b10110100010000111 )
b1001110110 $
b1 (
1!
#840
0!
#842
b10110101011111101 )
b10 (
1'
b1001111001 $
1!
b1001111011 &
#844
0!
#846
b10110111111110001 )
b100 (
b1001111100 $
1!
b1010000000 &
#848
0!
#850
b10111010011101101 )
b1000 (
0'
b1001111111 $
1!
b1010000101 &
#852
0!
#854
b10111011101101100 )
b1010000010 $
b10000 (
1!
#856
0!
#858
b10111100111101110 )
b1010000101 $
b1 (
1!
#860
0!
#862
b10111110001110011 )
b10 (
1'
b1010001000 $
1!
b1010001010 &
#864
0!
#866
b11000000110000101 )
b100 (
b1010001011 $
1!
b1010001111 &
#868
0!
#870
b11000011010011111 )
b1000 (
0'
b1010001110 $
1!
b1010010100 &
#872
0!
#874
b11000100100101101 )
b1010010001 $
b10000 (
1!
#876
0!
#878
b11000101110111110 )
b1010010100 $
b1 (
1!
#880
0!
#882
b11000111001010010 )
b10 (
1'
b1010010111 $
1!
b1010011001 &
#884
0!
#886
b11001001110000010 )
b100 (
b1010011010 $
1!
b1010011110 &
#888
0!
#890
b11001100010111010 )
b1000 (
0'
b1010011101 $
1!
b1010100011 &
#892
0!
#894
b11001101101010111 )
b1010100000 $
b10000 (
1!
#896
0!
#898
b11001110111110111 )
b1010100011 $
b1 (
1!
#900
0!
#902
b11010000010011010 )
b10 (
1'
b1010100110 $
1!
b1010101000 &
#904
0!
#906
b11010010111101000 )
b100 (
b1010101001 $
1!
b1010101101 &
#908
0!
#910
b11010101100111110 )
b1000 (
0'
b1010101100 $
1!
b1010110010 &
#912
0!
#914
b11010110111101010 )
b1010101111 $
b10000 (
1!
#916
0!
#918
b11011000010011001 )
b1010110010 $
b1 (
1!
#920
0!
#922
b11011001101001011 )
b10 (
1'
b1010110101 $
1!
b1010110111 &
#924
0!
#926
b11011100010110111 )
b100 (
b1010111000 $
1!
b1010111100 &
#928
0!
#930
b11011111000101011 )
b1000 (
0'
b1010111011 $
1!
b1011000001 &
#932
0!
#934
b11100000011100110 )
b1010111110 $
b10000 (
1!
#936
0!
#938
b11100001110100100 )
b1011000001 $
b1 (
1!
#940
0!
#942
b11100011001100101 )
b10 (
1'
b1011000100 $
1!
b1011000110 &
#944
0!
#946
b11100101111101111 )
b100 (
b1011000111 $
1!
b1011001011 &
#948
0!
#950
b11101000110000001 )
b1000 (
0'
b1011001010 $
1!
b1011010000 &
#952
0!
#954
b11101010001001011 )
b1011001101 $
b10000 (
1!
#956
0!
#958
b11101011100011000 )
b1011010000 $
b1 (
1!
#960
0!
#962
b11101100111101000 )
b10 (
1'
b1011010011 $
1!
b1011010101 &
#964
0!
#966
b11101111110010000 )
b100 (
b1011010110 $
1!
b1011011010 &
#968
0!
#970
b11110010101000000 )
b1000 (
0'
b1011011001 $
1!
b1011011111 &
#972
0!
#974
b11110100000011001 )
b1011011100 $
b10000 (
1!
#976
0!
#978
b11110101011110101 )
b1011011111 $
b1 (
1!
#980
0!
#982
b11110110111010100 )
b10 (
1'
b1011100010 $
1!
b1011100100 &
#984
0!
#986
b11111001110011010 )
b100 (
b1011100101 $
1!
b1011101001 &
#988
0!
#990
b11111100101101000 )
b1000 (
0'
b1011101000 $
1!
b1011101110 &
#992
0!
#994
b11111110001010000 )
b1011101011 $
b10000 (
1!
#996
0!
#998
b11111111100111011 )
b1011101110 $
b1 (
1!
#1000
0!
#1002
b100000001000101001 )
b10 (
1'
b1011110001 $
1!
b1011110011 &
#1004
0!
#1006
b100000100000001101 )
b100 (
b1011110100 $
1!
b1011111000 &
#1008
0!
#1010
b100000110111111001 )
b1000 (
0'
b1011110111 $
1!
b1011111101 &
#1012
0!
#1014
b100001000011110000 )
b1011111010 $
b10000 (
1!
#1016
0!
#1018
b100001001111101010 )
b1011111101 $
b1 (
1!
#1020
0!
#1022
b100001011011100111 )
b10 (
1'
b1100000000 $
1!
b1100000010 &
#1024
0!
#1026
b100001110011101001 )
b100 (
b1100000011 $
1!
b1100000111 &
#1028
0!
#1030
b100010001011110011 )
b1000 (
0'
b1100000110 $
1!
b1100001100 &
#1032
0!
#1034
b100010010111111001 )
b1100001001 $
b10000 (
1!
#1036
0!
#1038
b100010100100000010 )
b1100001100 $
b1 (
1!
#1040
0!
#1042
b100010110000001110 )
b10 (
1'
b1100001111 $
1!
b1100010001 &
#1044
0!
#1046
b100011001000101110 )
b100 (
b1100010010 $
1!
b1100010110 &
#1048
0!
#1050
b100011100001010110 )
b1000 (
0'
b1100010101 $
1!
b1100011011 &
#1052
0!
#1054
b100011101101101011 )
b1100011000 $
b10000 (
1!
#1056
0!
#1058
b100011111010000011 )
b1100011011 $
b1 (
1!
#1060
0!
#1062
b100100000110011110 )
b10 (
1'
b1100011110 $
1!
b1100100000 &
#1064
0!
#1066
b100100011111011100 )
b100 (
b1100100001 $
1!
b1100100101 &
#1068
0!
#1070
b100100111000100010 )
b1000 (
0'
b1100100100 $
1!
b1100101010 &
#1072
0!
#1074
b100101000101000110 )
b1100100111 $
b10000 (
1!
#1076
0!
#1078
b100101010001101101 )
b1100101010 $
b1 (
1!
#1080
0!
#1082
b100101011110010111 )
b10 (
1'
b1100101101 $
1!
b1100101111 &
#1084
0!
#1086
b100101110111110011 )
b100 (
b1100110000 $
1!
b1100110100 &
#1088
0!
#1090
b100110010001010111 )
b1000 (
0'
b1100110011 $
1!
b1100111001 &
#1092
0!
#1094
b100110011110001010 )
b1100110110 $
b10000 (
1!
#1096
0!
#1098
b100110101011000000 )
b1100111001 $
b1 (
1!
#1100
0!
#1102
b100110110111111001 )
b10 (
1'
b1100111100 $
1!
b1100111110 &
#1104
0!
#1106
b100111010001110011 )
b100 (
b1100111111 $
1!
b1101000011 &
#1108
0!
#1110
b100111101011110101 )
b1000 (
0'
b1101000010 $
1!
b1101001000 &
#1112
0!
#1114
b100111111000110111 )
b1101000101 $
b10000 (
1!
#1116
0!
#1118
b101000000101111100 )
b1101001000 $
b1 (
1!
#1120
0!
#1122
b101000010011000100 )
b10 (
1'
b1101001011 $
1!
b1101001101 &
#1124
0!
#1126
b101000101101011100 )
b100 (
b1101001110 $
1!
b1101010010 &
#1128
0!
#1130
b101001000111111100 )
b1000 (
0'
b1101010001 $
1!
b1101010111 &
#1132
0!
#1134
b101001010101001101 )
b1101010100 $
b10000 (
1!
#1136
0!
#1138
b101001100010100001 )
b1101010111 $
b1 (
1!
#1140
0!
#1142
b101001101111111000 )
b10 (
1'
b1101011010 $
1!
b1101011100 &
#1144
0!
#1146
b101010001010101110 )
b100 (
b1101011101 $
1!
b1101100001 &
#1148
0!
#1150
b101010100101101100 )
b1000 (
0'
b1101100000 $
1!
b1101100110 &
#1152
0!
#1154
b101010110011001100 )
b1101100011 $
b10000 (
1!
#1156
0!
#1158
b101011000000101111 )
b1101100110 $
b1 (
1!
#1160
0!
#1162
b101011001110010101 )
b10 (
1'
b1101101001 $
1!
b1101101011 &
#1164
0!
#1166
b101011101001101001 )
b100 (
b1101101100 $
1!
b1101110000 &
#1168
0!
#1170
b101100000101000101 )
b1000 (
0'
b1101101111 $
1!
b1101110101 &
#1172
0!
#1174
b101100010010110100 )
b1101110010 $
b10000 (
1!
#1176
0!
#1178
b101100100000100110 )
b1101110101 $
b1 (
1!
#1180
0!
#1182
b101100101110011011 )
b10 (
1'
b1101111000 $
1!
b1101111010 &
#1184
0!
#1186
b101101001010001101 )
b100 (
b1101111011 $
1!
b1101111111 &
#1188
0!
#1190
b101101100110000111 )
b1000 (
0'
b1101111110 $
1!
b1110000100 &
#1192
0!
#1194
b101101110100000101 )
b1110000001 $
b10000 (
1!
#1196
0!
#1198
b101110000010000110 )
b1110000100 $
b1 (
1!
#1200
0!
#1202
b101110010000001010 )
b10 (
1'
b1110000111 $
1!
b1110001001 &
#1204
0!
#1206
b101110101100011010 )
b100 (
b1110001010 $
1!
b1110001110 &
#1208
0!
#1210
b101111001000110010 )
b1000 (
0'
b1110001101 $
1!
b1110010011 &
#1212
0!
#1214
b101111010110111111 )
b1110010000 $
b10000 (
1!
#1216
0!
#1218
b101111100101001111 )
b1110010011 $
b1 (
1!
#1220
0!
#1222
b101111110011100010 )
b10 (
1'
b1110010110 $
1!
b1110011000 &
#1224
0!
#1226
b110000010000010000 )
b100 (
b1110011001 $
1!
b1110011101 &
#1228
0!
#1230
b110000101101000110 )
b1000 (
0'
b1110011100 $
1!
b1110100010 &
#1232
0!
#1234
b110000111011100010 )
b1110011111 $
b10000 (
1!
#1236
0!
#1238
b110001001010000001 )
b1110100010 $
b1 (
1!
#1240
0!
#1242
b110001011000100011 )
b10 (
1'
b1110100101 $
1!
b1110100111 &
#1244
0!
#1246
b110001110101101111 )
b100 (
b1110101000 $
1!
b1110101100 &
#1248
0!
#1250
b110010010011000011 )
b1000 (
0'
b1110101011 $
1!
b1110110001 &
#1252
0!
#1254
b110010100001101110 )
b1110101110 $
b10000 (
1!
#1256
0!
#1258
b110010110000011100 )
b1110110001 $
b1 (
1!
#1260
0!
#1262
b110010111111001101 )
b10 (
1'
b1110110100 $
1!
b1110110110 &
#1264
0!
#1266
b110011011100110111 )
b100 (
b1110110111 $
1!
b1110111011 &
#1268
0!
#1270
b110011111010101001 )
b1000 (
0'
b1110111010 $
1!
b1111000000 &
#1272
0!
#1274
b110100001001100011 )
b1110111101 $
b10000 (
1!
#1276
0!
#1278
b110100011000100000 )
b1111000000 $
b1 (
1!
#1280
0!
#1282
b110100100111100000 )
b10 (
1'
b1111000011 $
1!
b1111000101 &
#1284
0!
#1286
b110101000101101000 )
b100 (
b1111000110 $
1!
b1111001010 &
#1288
0!
#1290
b110101100011111000 )
b1000 (
0'
b1111001001 $
1!
b1111001111 &
#1292
0!
#1294
b110101110011000001 )
b1111001100 $
b10000 (
1!
#1296
0!
#1298
b110110000010001101 )
b1111001111 $
b1 (
1!
#1300
0!
#1302
b110110010001011100 )
b10 (
1'
b1111010010 $
1!
b1111010100 &
#1304
0!
#1306
b110110110000000010 )
b100 (
b1111010101 $
1!
b1111011001 &
#1308
0!
#1310
b110111001110110000 )
b1000 (
0'
b1111011000 $
1!
b1111011110 &
#1312
0!
#1314
b110111011110001000 )
b1111011011 $
b10000 (
1!
#1316
0!
#1318
b110111101101100011 )
b1111011110 $
b1 (
1!
#1320
0!
#1322
b110111111101000001 )
b10 (
1'
b1111100001 $
1!
b1111100011 &
#1324
0!
#1326
b111000011100000101 )
b100 (
b1111100100 $
1!
b1111101000 &
0%
#1328
0!
#1330
b111000101011101001 )
b1000 (
0'
b1111100111 $
1!
#1332
0!
#1334
b111000111011010000 )
b10000 (
b1111101010 $
0#
1!
